<svg id="グループ化_9" data-name="グループ化 9" xmlns="http://www.w3.org/2000/svg" width="36.302" height="36.302" viewBox="0 0 36.302 36.302">
  <path id="パス_2" data-name="パス 2" d="M428.151,180A18.151,18.151,0,1,0,446.3,198.151,18.15,18.15,0,0,0,428.151,180Zm.414,15.791h.012a3.78,3.78,0,0,1-.1-.885,3.885,3.885,0,0,1,6.722-2.655,7.746,7.746,0,0,0,2.052-.722c.138-.069.276-.137.411-.213a3.876,3.876,0,0,1-1.246,1.806,3.6,3.6,0,0,1-.458.32l.021,0c-.007,0-.012.01-.02.014a7.714,7.714,0,0,0,1.823-.445c.132-.047.265-.095.4-.148a7.87,7.87,0,0,1-1.93,1.994c.011.17.011.335.011.5a11.048,11.048,0,0,1-17.011,9.308,8.361,8.361,0,0,0,.93.057,7.759,7.759,0,0,0,3.667-.918l.071-.035c.07-.039.136-.081.2-.121a8.131,8.131,0,0,0,.879-.582h-.014l.014-.01a3.841,3.841,0,0,1-3.623-2.693,3.92,3.92,0,0,0,.724.067,3.854,3.854,0,0,0,.748-.079c.092-.015.185-.027.276-.045l-.021-.006.023-.005a3.889,3.889,0,0,1-3.12-3.812v-.045a3.885,3.885,0,0,0,1.359.446c.132.02.265.037.4.045l-.015-.011.021,0a3.858,3.858,0,0,1-1.328-4.933c.042-.083.08-.167.129-.247a11.008,11.008,0,0,0,7.883,4.043c.037,0,.074.01.112.012Z" transform="translate(-410 -180)" fill="#181818"/>
</svg>
